<svg xmlns="http://www.w3.org/2000/svg" width="234.598" height="151.798" viewBox="0 0 234.598 151.798">
  <g id="Character" transform="translate(0 -6.202)">
    <rect id="Rectangle_376" data-name="Rectangle 376" width="214.702" height="0.107" transform="translate(0 140.607)" fill="#ebebeb"/>
    <rect id="Rectangle_377" data-name="Rectangle 377" width="33.308" height="0.107" transform="translate(159.882 147.519)" fill="#ebebeb"/>
    <rect id="Rectangle_378" data-name="Rectangle 378" width="23.76" height="0.107" transform="translate(119.375 146.012)" fill="#ebebeb"/>
    <rect id="Rectangle_379" data-name="Rectangle 379" width="25.342" height="0.107" transform="translate(153.195 143.531)" fill="#ebebeb"/>
    <rect id="Rectangle_380" data-name="Rectangle 380" width="5.451" height="0.107" transform="translate(22.526 144.252)" fill="#ebebeb"/>
    <rect id="Rectangle_381" data-name="Rectangle 381" width="30.75" height="0.107" transform="translate(31.8 144.252)" fill="#ebebeb"/>
    <rect id="Rectangle_382" data-name="Rectangle 382" width="20.112" height="0.107" transform="translate(74.357 146.065)" fill="#ebebeb"/>
    <rect id="Rectangle_383" data-name="Rectangle 383" width="5.402" height="58.126" transform="translate(104.288 78.552)" fill="#f0f0f0"/>
    <rect id="Rectangle_384" data-name="Rectangle 384" width="82.71" height="3.874" transform="translate(148.362 136.679)" fill="#f0f0f0"/>
    <rect id="Rectangle_385" data-name="Rectangle 385" width="81.456" height="58.126" transform="translate(233.146 136.679) rotate(180)" fill="#f5f5f5"/>
    <rect id="Rectangle_386" data-name="Rectangle 386" width="5.582" height="3.664" transform="translate(102.836 74.889)" fill="#e0e0e0"/>
    <rect id="Rectangle_387" data-name="Rectangle 387" width="84.179" height="3.664" transform="translate(234.598 78.552) rotate(180)" fill="#ebebeb"/>
    <path id="Path_455" data-name="Path 455" d="M333.927,268.3H268.569a4.236,4.236,0,0,1-4.232-4.231V251.622a4.236,4.236,0,0,1,4.232-4.232h65.358a4.236,4.236,0,0,1,4.231,4.232V264.07A4.236,4.236,0,0,1,333.927,268.3ZM268.569,248.25a3.377,3.377,0,0,0-3.373,3.373V264.07a3.376,3.376,0,0,0,3.373,3.372h65.358a3.376,3.376,0,0,0,3.372-3.372V251.622a3.376,3.376,0,0,0-3.372-3.373Z" transform="translate(-108.83 -164.757)" fill="#fff"/>
    <path id="Path_456" data-name="Path 456" d="M333.927,328.938H268.569a4.236,4.236,0,0,1-4.232-4.232V312.259a4.236,4.236,0,0,1,4.232-4.231h65.358a4.236,4.236,0,0,1,4.231,4.231v12.448A4.236,4.236,0,0,1,333.927,328.938Zm-65.358-20.052a3.376,3.376,0,0,0-3.373,3.372v12.448a3.377,3.377,0,0,0,3.373,3.373h65.358a3.377,3.377,0,0,0,3.372-3.373V312.259a3.376,3.376,0,0,0-3.372-3.372Z" transform="translate(-108.83 -199.356)" fill="#fff"/>
    <path id="Path_457" data-name="Path 457" d="M345.009,271.146h-21.7a1.294,1.294,0,0,1-1.293-1.293v-1.023a1.294,1.294,0,0,1,1.293-1.293h21.7a1.294,1.294,0,0,1,1.293,1.293v1.023A1.294,1.294,0,0,1,345.009,271.146Zm-21.7-2.75a.434.434,0,0,0-.434.434v1.023a.434.434,0,0,0,.434.434h21.7a.434.434,0,0,0,.434-.434v-1.023a.434.434,0,0,0-.434-.434Z" transform="translate(-141.743 -176.253)" fill="#fff"/>
    <path id="Path_458" data-name="Path 458" d="M345.009,331.783h-21.7a1.294,1.294,0,0,1-1.293-1.293v-1.023a1.294,1.294,0,0,1,1.293-1.293h21.7a1.294,1.294,0,0,1,1.293,1.293v1.023A1.294,1.294,0,0,1,345.009,331.783Zm-21.7-2.75a.434.434,0,0,0-.434.434v1.023a.435.435,0,0,0,.434.434h21.7a.435.435,0,0,0,.434-.434v-1.023a.434.434,0,0,0-.434-.434Z" transform="translate(-141.743 -210.851)" fill="#fff"/>
    <rect id="Rectangle_388" data-name="Rectangle 388" width="15.083" height="2.974" transform="translate(15.442 98.221) rotate(180)" fill="#e6e6e6"/>
    <rect id="Rectangle_389" data-name="Rectangle 389" width="2.785" height="101.731" transform="translate(41.109 38.875)" fill="#e6e6e6"/>
    <rect id="Rectangle_390" data-name="Rectangle 390" width="38.095" height="2.974" transform="translate(15.442 95.247)" fill="#f5f5f5"/>
    <rect id="Rectangle_391" data-name="Rectangle 391" width="15.083" height="2.974" transform="translate(15.442 125.593) rotate(180)" fill="#e6e6e6"/>
    <rect id="Rectangle_392" data-name="Rectangle 392" width="38.095" height="2.974" transform="translate(15.442 122.619)" fill="#f5f5f5"/>
    <rect id="Rectangle_393" data-name="Rectangle 393" width="15.083" height="2.974" transform="translate(15.442 43.475) rotate(180)" fill="#e6e6e6"/>
    <rect id="Rectangle_394" data-name="Rectangle 394" width="38.095" height="2.974" transform="translate(15.442 40.502)" fill="#f5f5f5"/>
    <rect id="Rectangle_395" data-name="Rectangle 395" width="15.083" height="2.974" transform="translate(15.442 70.848) rotate(180)" fill="#e6e6e6"/>
    <rect id="Rectangle_396" data-name="Rectangle 396" width="38.095" height="2.974" transform="translate(15.442 67.874)" fill="#f5f5f5"/>
    <rect id="Rectangle_397" data-name="Rectangle 397" width="2.785" height="101.731" transform="translate(3.013 38.875)" fill="#e6e6e6"/>
    <rect id="Rectangle_398" data-name="Rectangle 398" width="2.785" height="101.731" transform="translate(15.442 38.875)" fill="#f5f5f5"/>
    <rect id="Rectangle_399" data-name="Rectangle 399" width="2.785" height="101.731" transform="translate(50.753 38.875)" fill="#f5f5f5"/>
    <rect id="Rectangle_400" data-name="Rectangle 400" width="57.064" height="48.777" transform="translate(96.026 6.202)" fill="#e0e0e0"/>
    <rect id="Rectangle_401" data-name="Rectangle 401" width="58.123" height="48.777" transform="translate(97.403 6.202)" fill="#f5f5f5"/>
    <rect id="Rectangle_402" data-name="Rectangle 402" width="41.089" height="51.122" transform="translate(152.026 10.046) rotate(90)" fill="#fff"/>
    <rect id="Rectangle_403" data-name="Rectangle 403" width="2.342" height="53.094" transform="translate(178.624 20.291)" fill="#f5f5f5"/>
    <path id="Path_459" data-name="Path 459" d="M397.383,226.61H381a2.064,2.064,0,0,1,2.064-2.064h12.255a2.064,2.064,0,0,1,2.064,2.064Z" transform="translate(-209.397 -151.722)" fill="#f0f0f0"/>
    <path id="Path_460" data-name="Path 460" d="M396.18,50.041h-23.7l2.726-24.534h18.244Z" transform="translate(-204.538 -14.554)" fill="#e0e0e0"/>
    <ellipse id="_Path_" data-name="&lt;Path&gt;" cx="83.257" cy="4.862" rx="83.257" ry="4.862" transform="translate(21.947 148.275)" fill="#f5f5f5"/>
    <path id="Path_461" data-name="Path 461" d="M190.986,134.106s1-3.555,6.764-2.243,1.175,5.713,1.175,5.713a7.436,7.436,0,0,1,2.726,7.887c-1.409,6.1,2.18,7.381.444,10.151s-13.646,4.911-21.285.625c-4.608-2.586,1.816-10.087.881-13.54C180.293,137.534,184.13,132.456,190.986,134.106Z" transform="translate(-102.21 -98.672)" fill="#263238"/>
    <path id="Path_462" data-name="Path 462" d="M204.477,301.247l4.568-22.683a5.583,5.583,0,0,1,5.22-4.345H258.19a3.451,3.451,0,0,1,3.47,4.345l-4.568,22.683a5.583,5.583,0,0,1-5.219,4.345H207.946A3.451,3.451,0,0,1,204.477,301.247Z" transform="translate(-116.623 -180.065)" fill="#407bff"/>
    <path id="Path_463" data-name="Path 463" d="M117.195,255.176c-.134-1-.221-2.006-.257-2.99l.429-.016c.036.97.121,1.962.253,2.949Z" transform="translate(-66.724 -167.484)" fill="#407bff"/>
    <path id="Path_464" data-name="Path 464" d="M118.237,223.537l-.423-.073a24.376,24.376,0,0,1,5.158-11.437l.333.272a23.952,23.952,0,0,0-5.068,11.239Z" transform="translate(-67.224 -144.578)" fill="#407bff"/>
    <path id="Path_465" data-name="Path 465" d="M144.984,195.014H152.7l12,58.838h-7.712c-16.248,0-32.105-13.171-35.418-29.419S128.736,195.014,144.984,195.014Z" transform="translate(-69.015 -134.871)" fill="#407bff"/>
    <ellipse id="Ellipse_34" data-name="Ellipse 34" cx="26.572" cy="32.571" rx="26.572" ry="32.571" transform="matrix(0.67, -0.742, 0.742, 0.67, 47.698, 87.45)" fill="#407bff"/>
    <ellipse id="Ellipse_35" data-name="Ellipse 35" cx="26.572" cy="32.571" rx="26.572" ry="32.571" transform="matrix(0.67, -0.742, 0.742, 0.67, 47.698, 87.45)" fill="#fff" opacity="0.2"/>
    <path id="Path_466" data-name="Path 466" d="M237.157,292.5l2.807-13.937a5.583,5.583,0,0,1,5.22-4.345h4.4a3.451,3.451,0,0,1,3.47,4.345l-4.568,22.683a5.583,5.583,0,0,1-5.22,4.345H188V292.5Z" transform="translate(-107.27 -180.065)" fill="#407bff"/>
    <path id="Path_467" data-name="Path 467" d="M237.157,292.5l2.807-13.937a5.583,5.583,0,0,1,5.22-4.345h4.4a3.451,3.451,0,0,1,3.47,4.345l-4.568,22.683a5.583,5.583,0,0,1-5.22,4.345H188V292.5Z" transform="translate(-107.27 -180.065)" fill="#fff" opacity="0.3"/>
    <path id="Path_468" data-name="Path 468" d="M177.249,321.782h2.788l6.77-29.455h-5.045Z" transform="translate(-101.137 -166.8)" fill="#263238"/>
    <path id="Path_469" data-name="Path 469" d="M177.249,321.782h2.788l6.77-29.455h-5.045Z" transform="translate(-101.137 -166.8)" fill="#fff" opacity="0.6"/>
    <path id="Path_470" data-name="Path 470" d="M145.012,321.782H147.8l6.77-29.455h-5.045Z" transform="translate(-82.743 -166.8)" fill="#263238"/>
    <path id="Path_471" data-name="Path 471" d="M145.012,321.782H147.8l6.77-29.455h-5.045Z" transform="translate(-82.743 -166.8)" fill="#fff" opacity="0.6"/>
    <path id="Path_472" data-name="Path 472" d="M266.508,321.782h-2.789l-6.77-29.455h5.045Z" transform="translate(-146.614 -166.8)" fill="#263238"/>
    <path id="Path_473" data-name="Path 473" d="M266.508,321.782h-2.789l-6.77-29.455h5.045Z" transform="translate(-146.614 -166.8)" fill="#fff" opacity="0.6"/>
    <path id="Path_474" data-name="Path 474" d="M298.745,321.782h-2.788l-6.77-29.455h5.045Z" transform="translate(-165.008 -166.8)" fill="#263238"/>
    <path id="Path_475" data-name="Path 475" d="M298.745,321.782h-2.788l-6.77-29.455h5.045Z" transform="translate(-165.008 -166.8)" fill="#fff" opacity="0.6"/>
    <path id="Path_476" data-name="Path 476" d="M230.146,210.027c1.458,2.523,3.02,5.1,4.621,7.555.808,1.228,1.634,2.436,2.491,3.59a28.553,28.553,0,0,0,2.677,3.159c.034.033-.013-.011-.049-.038a1.7,1.7,0,0,0-.156-.108,1.961,1.961,0,0,0-.8-.282,1.919,1.919,0,0,0-.35-.016,1.954,1.954,0,0,0-.386.05,2.11,2.11,0,0,0-.671.278,1.906,1.906,0,0,0-.589.576,1.062,1.062,0,0,0-.168.358c-.005.028,0,.01.013-.022a5.575,5.575,0,0,0,.1-.787c.047-.649.052-1.373.044-2.1-.023-1.455-.076-2.95-.157-4.444l-.494-9.035,2.524-.381c.726,2.984,1.338,5.97,1.828,9.008.236,1.521.465,3.046.61,4.619.072.79.134,1.583.144,2.45a8.928,8.928,0,0,1-.091,1.477,4.64,4.64,0,0,1-.116.532,3.147,3.147,0,0,1-.392.878,2.624,2.624,0,0,1-.785.779,2.512,2.512,0,0,1-.8.333,2.509,2.509,0,0,1-.877.039,2.661,2.661,0,0,1-1.064-.386,3.146,3.146,0,0,1-.271-.191l-.157-.131a28.9,28.9,0,0,1-3.425-3.574c-1.019-1.229-1.958-2.489-2.853-3.77a84.132,84.132,0,0,1-4.911-7.935Z" transform="translate(-128.744 -142.499)" fill="#ffc3bd"/>
    <path id="Path_477" data-name="Path 477" d="M225.317,201c3.427.576,6.226,10.873,6.145,10.653l-6.6,6.147s-4.071-6.132-3.495-9.2C221.969,205.4,222.615,200.541,225.317,201Z" transform="translate(-126.28 -138.267)" fill="#407bff"/>
    <path id="Path_478" data-name="Path 478" d="M225.317,201c3.427.576,6.226,10.873,6.145,10.653l-6.6,6.147s-4.071-6.132-3.495-9.2C221.969,205.4,222.615,200.541,225.317,201Z" transform="translate(-126.28 -138.267)" opacity="0.4"/>
    <path id="Path_479" data-name="Path 479" d="M204.016,205.507c-.324,4.408-1.305,11.831-3.721,24.327l-20.743-.617c.544-7.657-.277-13.366-2.154-26.768a4.357,4.357,0,0,1,3.873-4.936c1.332-.137,2.845-.251,4.368-.279a66.016,66.016,0,0,1,9.419.28c1.011.123,2.055.282,3.052.452A7.118,7.118,0,0,1,204.016,205.507Z" transform="translate(-101.198 -136.117)" fill="#407bff"/>
    <path id="Path_480" data-name="Path 480" d="M204.016,205.507c-.324,4.408-1.305,11.831-3.721,24.327l-20.743-.617c.544-7.657-.277-13.366-2.154-26.768a4.357,4.357,0,0,1,3.873-4.936c1.332-.137,2.845-.251,4.368-.279a66.016,66.016,0,0,1,9.419.28c1.011.123,2.055.282,3.052.452A7.118,7.118,0,0,1,204.016,205.507Z" transform="translate(-101.198 -136.117)" opacity="0.3"/>
    <path id="Path_481" data-name="Path 481" d="M197.894,172.652c.5,3.048.932,8.619-1.249,10.578a28.533,28.533,0,0,1,8.812,7.65c3.733-2.957.607-7.37.607-7.37-3.356-.908-3.194-3.412-2.535-5.75Z" transform="translate(-112.205 -122.111)" fill="#ffc3bd"/>
    <path id="Path_482" data-name="Path 482" d="M204.71,177.506l3.335,3.022a9.708,9.708,0,0,0-.34,1.663c-1.285-.225-3.017-1.695-3.114-3.051A4.542,4.542,0,0,1,204.71,177.506Z" transform="translate(-116.723 -124.881)" opacity="0.2"/>
    <path id="Path_483" data-name="Path 483" d="M191.5,148.418c.911,4.989,1.19,7.12,4.037,9.4,4.283,3.423,10.211,1.213,10.809-3.948.538-4.645-1.042-12.023-6.2-13.433a6.917,6.917,0,0,0-8.646,7.986Z" transform="translate(-109.198 -103.582)" fill="#ffc3bd"/>
    <path id="Path_484" data-name="Path 484" d="M197.231,139.085c6.842,2.776-.046,5.122-2.535,7.775-2.205,2.35-.14,6.09-3.841,3.454-1.766-1.258-1.693-7.9-.705-9.141S195.189,138.256,197.231,139.085Z" transform="translate(-108.103 -102.832)" fill="#263238"/>
    <path id="Path_485" data-name="Path 485" d="M211.632,160.08c.049.409.306.715.573.683s.445-.39.4-.8-.306-.715-.573-.683S211.583,159.671,211.632,160.08Z" transform="translate(-120.752 -114.481)" fill="#263238"/>
    <path id="Path_486" data-name="Path 486" d="M222.357,158.519c.049.409.306.715.573.683s.445-.39.4-.8-.306-.715-.573-.683S222.308,158.11,222.357,158.519Z" transform="translate(-126.871 -113.59)" fill="#263238"/>
    <path id="Path_487" data-name="Path 487" d="M223.021,157.276l.949-.4S223.558,157.7,223.021,157.276Z" transform="translate(-127.255 -113.109)" fill="#263238"/>
    <path id="Path_488" data-name="Path 488" d="M218.367,161.062a11.007,11.007,0,0,0,1.772,2.437,1.773,1.773,0,0,1-1.426.449Z" transform="translate(-124.599 -115.498)" fill="#ed847e"/>
    <path id="Path_489" data-name="Path 489" d="M211.194,170.461a3.984,3.984,0,0,0,.608-.027.121.121,0,0,0,.106-.135.124.124,0,0,0-.134-.106,3.25,3.25,0,0,1-2.795-.95.121.121,0,0,0-.186.155A3.39,3.39,0,0,0,211.194,170.461Z" transform="translate(-119.12 -120.142)" fill="#263238"/>
    <path id="Path_490" data-name="Path 490" d="M188.821,166.36a3.977,3.977,0,0,0,2.352,1.921c1.338.392,2.024-.8,1.667-2.073-.322-1.145-1.406-2.728-2.755-2.562A1.786,1.786,0,0,0,188.821,166.36Z" transform="translate(-107.601 -116.966)" fill="#ffc3bd"/>
    <path id="Path_491" data-name="Path 491" d="M206.575,155.836a.242.242,0,0,0,.236-.159,2.859,2.859,0,0,1,1.785-1.445.242.242,0,1,0-.127-.467,3.308,3.308,0,0,0-2.113,1.747.242.242,0,0,0,.219.325Z" transform="translate(-117.738 -111.33)" fill="#263238"/>
    <path id="Path_492" data-name="Path 492" d="M221.964,152.483a.242.242,0,0,0,.139-.446,2.4,2.4,0,0,0-2.194-.256.242.242,0,1,0,.2.442h0a1.918,1.918,0,0,1,1.735.222A.24.24,0,0,0,221.964,152.483Z" transform="translate(-125.397 -110.114)" fill="#263238"/>
    <path id="Path_493" data-name="Path 493" d="M236.193,334.227l4.682,1.767,5.332-10.9-4.682-1.767Z" transform="translate(-134.771 -184.488)" fill="#ffc3bd"/>
    <path id="Path_494" data-name="Path 494" d="M239.39,397.362l-5.15-2.536a.4.4,0,0,0-.515.136l-2.309,3.424a.87.87,0,0,0,.245,1.209c1.363,1.02,2.456,1.09,4.72,2.2,1.393.686,4.225,2.5,6.315,2.984,2.045.469,2.641-1.571,1.81-1.958-3.725-1.737-3.757-3.181-4.484-4.8a1.355,1.355,0,0,0-.632-.661Z" transform="translate(-131.961 -248.857)" fill="#263238"/>
    <g id="Group_774" data-name="Group 774" transform="translate(104.002 138.839)" opacity="0.2">
      <path id="Path_495" data-name="Path 495" d="M249.632,325.1l-2.747,5.62L242.2,328.95l2.747-5.62Z" transform="translate(-242.201 -323.33)"/>
    </g>
    <path id="Path_496" data-name="Path 496" d="M310.695,310.31l4.416-2.354-4.676-11.2-3.66,6.22Z" transform="translate(-175.044 -169.329)" fill="#ffc3bd"/>
    <path id="Path_497" data-name="Path 497" d="M317.441,373.1l-5.7.715a.4.4,0,0,0-.355.4l-.008,4.578a.837.837,0,0,0,.941.8c1.981-.283,2.921-.52,5.426-.834,1.541-.193,5.486-.553,7.614-.82,2.081-.261,1.942-2.381,1.029-2.46-4.095-.354-6.561-1.215-8.06-2.169A1.355,1.355,0,0,0,317.441,373.1Z" transform="translate(-177.674 -236.482)" fill="#263238"/>
    <g id="Group_775" data-name="Group 775" transform="translate(131.729 127.433)" opacity="0.2">
      <path id="Path_498" data-name="Path 498" d="M310.433,296.766l2.412,5.772-4.418,2.355-1.654-1.905Z" transform="translate(-306.772 -296.766)"/>
    </g>
    <path id="Path_499" data-name="Path 499" d="M212.295,158.837l.949-.4S212.832,159.264,212.295,158.837Z" transform="translate(-121.134 -114)" fill="#263238"/>
    <path id="Path_500" data-name="Path 500" d="M202.631,276.394s29.037-.161,28.131,9.564c-1.5,16.083-12.878,38.231-12.878,38.231L211.27,321.9s7.016-14.877,6.692-30.8h-21.3c-8.125,0-11.637-8.923-3.729-19.335C197.766,271.767,202.631,276.394,202.631,276.394Z" transform="translate(-107.549 -178.665)"/>
    <path id="Path_501" data-name="Path 501" d="M181.027,268.713l-.586,1.841c-.077.142.089.294.329.3l21.349.635c.187.006.345-.082.36-.2l.242-1.851c.017-.128-.142-.242-.347-.248l-21.005-.625A.377.377,0,0,0,181.027,268.713Z" transform="translate(-102.948 -176.839)" fill="#fff"/>
    <path id="Path_502" data-name="Path 502" d="M187.242,271.017l-.563-.017c-.112,0-.2-.064-.186-.134l.336-2.4c.01-.07.109-.125.222-.122l.563.017c.112,0,.2.064.186.134l-.336,2.4C187.453,270.966,187.354,271.02,187.242,271.017Z" transform="translate(-106.412 -176.71)" fill="#263238"/>
    <path id="Path_503" data-name="Path 503" d="M226.26,272.177l-.563-.017c-.112,0-.2-.064-.186-.134l.336-2.4c.01-.07.11-.125.222-.122l.563.017c.112,0,.2.064.186.134l-.336,2.4C226.471,272.126,226.371,272.181,226.26,272.177Z" transform="translate(-128.675 -177.372)" fill="#263238"/>
    <path id="Path_504" data-name="Path 504" d="M206.751,271.6l-.563-.017c-.112,0-.2-.064-.186-.134l.336-2.4c.01-.07.11-.125.222-.122l.563.017c.112,0,.2.064.186.134l-.336,2.4C206.962,271.546,206.863,271.6,206.751,271.6Z" transform="translate(-117.543 -177.041)" fill="#263238"/>
    <path id="Path_505" data-name="Path 505" d="M194.391,268.371s35.979-7.661,37.54,1.491c2.715,15.923,8.472,36.3,8.472,36.3l-5.787,3.939s-9-18.964-14.207-34.012c-6.222,2.013-24.359,11.357-31.609,11.357-8.125,0-11.207-7.269-7.652-19.219C185.982,268.233,194.391,268.371,194.391,268.371Z" transform="translate(-102.528 -175.015)" fill="#263238"/>
    <path id="Path_506" data-name="Path 506" d="M279.853,296.564a53.656,53.656,0,0,1-.85,5.611c-1.6-3.944-3.163-8.009-4.483-11.822C277.857,291.755,280.116,293.743,279.853,296.564Z" transform="translate(-156.64 -189.271)"/>
    <path id="Path_507" data-name="Path 507" d="M127.376,278.564l4.568,22.683a5.583,5.583,0,0,0,5.22,4.345h15.694a3.451,3.451,0,0,0,3.47-4.345l-4.568-22.683a5.583,5.583,0,0,0-5.22-4.345H130.846A3.451,3.451,0,0,0,127.376,278.564Z" transform="translate(-72.63 -180.065)" fill="#407bff"/>
    <path id="Path_508" data-name="Path 508" d="M180.6,301.247l-4.568-22.683a5.583,5.583,0,0,0-5.22-4.345h-4.4a3.451,3.451,0,0,0-3.47,4.345l4.568,22.683a5.583,5.583,0,0,0,5.22,4.345h4.4A3.451,3.451,0,0,0,180.6,301.247Z" transform="translate(-92.924 -180.065)" fill="#407bff"/>
    <path id="Path_509" data-name="Path 509" d="M180.6,301.247l-4.568-22.683a5.583,5.583,0,0,0-5.22-4.345h-4.4a3.451,3.451,0,0,0-3.47,4.345l4.568,22.683a5.583,5.583,0,0,0,5.22,4.345h4.4A3.451,3.451,0,0,0,180.6,301.247Z" transform="translate(-92.924 -180.065)" fill="#fff" opacity="0.3"/>
    <path id="Path_510" data-name="Path 510" d="M179.3,214.918c-.258,1.339-.53,2.777-.74,4.175s-.412,2.814-.568,4.214-.254,2.792-.287,4.155a19.94,19.94,0,0,0,.247,3.868l.037.2a.364.364,0,0,0-.035-.079c-.025-.035-.03-.024-.009.012a1.716,1.716,0,0,0,.342.374,8,8,0,0,0,1.448.955,30.185,30.185,0,0,0,3.76,1.637c1.325.5,2.691.942,4.069,1.373s2.784.838,4.159,1.231l-.416,2.518a56.85,56.85,0,0,1-8.948-1.4,29.14,29.14,0,0,1-4.5-1.455,12.428,12.428,0,0,1-2.341-1.289,6.193,6.193,0,0,1-1.233-1.162,4.413,4.413,0,0,1-.575-.931,4.144,4.144,0,0,1-.221-.6l-.088-.333a22.01,22.01,0,0,1-.626-4.894,43.651,43.651,0,0,1,.127-4.655c.115-1.529.295-3.041.522-4.541s.484-2.967.844-4.5Z" transform="translate(-98.578 -145.589)" fill="#ffc3bd"/>
    <path id="Path_511" data-name="Path 511" d="M175.677,199.935c-2.084.616-4.638,7.755-4.638,7.755l8.02,5.831s2.989-5.953,2.137-8.647C180.309,202.068,178.056,199.232,175.677,199.935Z" transform="translate(-97.594 -137.617)" fill="#407bff"/>
    <path id="Path_512" data-name="Path 512" d="M175.677,199.935c-2.084.616-4.638,7.755-4.638,7.755l8.02,5.831s2.989-5.953,2.137-8.647C180.309,202.068,178.056,199.232,175.677,199.935Z" transform="translate(-97.594 -137.617)" opacity="0.3"/>
    <path id="Path_513" data-name="Path 513" d="M219.51,266.338l-2.018-.921a2.5,2.5,0,0,0-1.608-.159l-4.768,1.12-.637,1.6c.684,1.877,3.862,1.627,3.862,1.627l2.534.864a1.07,1.07,0,0,0,1.157-.315l1.844-2.143a1.07,1.07,0,0,0-.367-1.672Z" transform="translate(-120.099 -174.914)" fill="#ffc3bd"/>
    <path id="Path_514" data-name="Path 514" d="M256.279,194.374l-2.623.229a1.5,1.5,0,0,0-1.308,1.062l-.692,2.281s-2.059,2.434-.933,4.085l1.67.417,3.743-3.262a2.3,2.3,0,0,0,.746-1.289l.462-2.338a1,1,0,0,0-1.064-1.186Z" transform="translate(-142.869 -134.504)" fill="#ffc3bd"/>
    <path id="Path_515" data-name="Path 515" d="M249.15,190.355a6.023,6.023,0,1,1-12.047,0Z" transform="translate(-135.29 -132.213)" fill="#407bff"/>
    <ellipse id="Ellipse_36" data-name="Ellipse 36" cx="6.023" cy="0.253" rx="6.023" ry="0.253" transform="translate(101.814 57.89)" fill="#263238"/>
    <path id="Path_516" data-name="Path 516" d="M260.964,196.8a2.091,2.091,0,1,1,2.091-2.091,2.091,2.091,0,0,1-2.091,2.091Zm0-3.753a1.662,1.662,0,1,0,1.661,1.662,1.662,1.662,0,0,0-1.661-1.662Z" transform="translate(-147.711 -133.506)" fill="#407bff"/>
    <path id="Path_517" data-name="Path 517" d="M248.265,160.338a7.878,7.878,0,0,0,.994,2.078,14.04,14.04,0,0,0,1.5,1.663,6.461,6.461,0,0,1,1.47,2.088,3.78,3.78,0,0,1,.1,2.55,7.944,7.944,0,0,0-1-2.078,14.237,14.237,0,0,0-1.5-1.664,6.493,6.493,0,0,1-1.468-2.089A3.791,3.791,0,0,1,248.265,160.338Z" transform="translate(-141.56 -115.085)" fill="#e0e0e0"/>
    <path id="Path_518" data-name="Path 518" d="M244.075,166.205a7.883,7.883,0,0,0,.994,2.078,14.047,14.047,0,0,0,1.5,1.663,6.46,6.46,0,0,1,1.47,2.088,3.779,3.779,0,0,1,.1,2.55,7.944,7.944,0,0,0-1-2.078,14.232,14.232,0,0,0-1.5-1.664,6.493,6.493,0,0,1-1.468-2.09,3.792,3.792,0,0,1-.1-2.549Z" transform="translate(-139.169 -118.433)" fill="#e0e0e0"/>
    <path id="Path_519" data-name="Path 519" d="M207.251,140.021c3.313,2.539,4.519,1.079,6.183,3.723-.627-3.787-2.934-4.8-5.134-4.845S206.409,139.375,207.251,140.021Z" transform="translate(-117.895 -102.851)" fill="#263238"/>
  </g>
</svg>
