<svg xmlns="http://www.w3.org/2000/svg" width="384.907" height="306.999" viewBox="0 0 384.907 306.999">
  <g id="New_writen_Note" data-name="New writen Note" transform="translate(38 0)">
    <g id="Background_Complete" data-name="Background Complete" transform="translate(-38 6.793)">
      <path id="Path_608" data-name="Path 608" d="M49.61,227.3l53.554-5.678L97.319,169.6l-53.612,5.16.729,4.036,1.6-.568c1.058-.051,1.533.629,1.681,1.678q0,.034.009.069c.12,1.061-.127,2.054-1.171,2.277l-2.021-.123.411,3.66s3.557-.816,3.721,1.45c0,0-.155,2.1-3.348,1.862l.343,3.053s3.552-.97,3.75,1.375c.168,1.992-1.9,2.137-3.349,2.2l.362,3.22s3.536-.727,3.487,1.674-3.079,1.953-3.079,1.953l.461,4.1s3.269-1.434,3.544,1.011-2.356,2.264-3.2,2.069l.35,3.117s3.336-1.427,3.491,1.712c.117,2.356-3.142,1.4-3.142,1.4l.487,4.337s3.273-1.4,3.536.942c.187,1.663-1.819,2.458-3.244,1.66Z" transform="translate(-43.707 -72.498)" fill="#ededed"/>
      <rect id="Rectangle_405" data-name="Rectangle 405" width="32.128" height="8.794" transform="translate(13.994 94.487) rotate(-2.083)" fill="#b2b2b2"/>
      <path id="Path_609" data-name="Path 609" d="M93.981,186.577a8.039,8.039,0,0,1-1.318.163l-3.6.29c-3.045.227-7.252.511-11.9.8s-8.861.525-11.911.676l-3.612.157a8.028,8.028,0,0,1-1.328,0,8.059,8.059,0,0,1,1.318-.163l3.6-.29c3.045-.227,7.253-.511,11.9-.8s8.859-.525,11.909-.676l3.613-.157a8.053,8.053,0,0,1,1.328,0Z" transform="translate(-46.937 -75.796)" fill="#afafaf"/>
      <path id="Path_610" data-name="Path 610" d="M95.571,194.675a8.043,8.043,0,0,1-1.318.163l-3.6.29c-3.045.227-7.252.511-11.9.8s-8.861.525-11.911.676l-3.612.157a8.044,8.044,0,0,1-1.328,0,8.037,8.037,0,0,1,1.318-.163l3.6-.29c3.045-.227,7.253-.511,11.9-.8s8.859-.525,11.909-.676l3.613-.157A8.046,8.046,0,0,1,95.571,194.675Z" transform="translate(-47.246 -77.371)" fill="#afafaf"/>
      <path id="Path_611" data-name="Path 611" d="M96.15,202.99a8.042,8.042,0,0,1-1.318.163l-3.6.29c-3.045.227-7.252.511-11.9.8s-8.861.525-11.911.676l-3.612.157a8.037,8.037,0,0,1-1.328,0,8.039,8.039,0,0,1,1.318-.163l3.6-.29c3.045-.226,7.253-.511,11.9-.8s8.859-.525,11.909-.676l3.613-.157a8.04,8.04,0,0,1,1.328,0Z" transform="translate(-47.359 -78.989)" fill="#afafaf"/>
      <path id="Path_612" data-name="Path 612" d="M97.162,211.3a8.025,8.025,0,0,1-1.318.163l-3.6.29c-3.045.227-7.252.511-11.9.8s-8.861.525-11.911.676l-3.612.157a8.054,8.054,0,0,1-1.328,0,8.037,8.037,0,0,1,1.318-.163l3.6-.29c3.045-.227,7.253-.511,11.9-.8s8.86-.525,11.909-.676l3.613-.157A8.053,8.053,0,0,1,97.162,211.3Z" transform="translate(-47.556 -80.607)" fill="#afafaf"/>
      <path id="Path_613" data-name="Path 613" d="M99.475,220.263a8.042,8.042,0,0,1-1.318.163l-3.6.29c-3.045.227-7.252.511-11.9.8s-8.861.525-11.911.676l-3.612.157a8.029,8.029,0,0,1-1.328,0,8.037,8.037,0,0,1,1.318-.163l3.6-.29c3.045-.226,7.253-.511,11.9-.8s8.86-.525,11.909-.676l3.613-.157a8.045,8.045,0,0,1,1.328,0Z" transform="translate(-48.006 -82.35)" fill="#afafaf"/>
      <path id="Path_614" data-name="Path 614" d="M95.118,67.341l-.337,53.853h52.347l.858-53.853-4.093.274.386,1.655c-.067,1.057-.8,1.453-1.855,1.483h-.069c-1.068,0-2.027-.356-2.132-1.418l.348-1.994h-3.683s.414,3.625-1.856,3.536c0,0-2.065-.388-1.477-3.536h-3.072s.568,3.638-1.785,3.573c-2-.055-1.912-2.126-1.809-3.573h-3.241s.328,3.6-2.053,3.278-1.6-3.278-1.6-3.278h-4.126s1.06,3.409-1.4,3.409-1.987-2.594-1.7-3.409h-3.137s1.046,3.474-2.091,3.278c-2.355-.147-1.036-3.278-1.036-3.278h-4.364s1.022,3.409-1.331,3.409c-1.674,0-2.24-2.082-1.288-3.409Z" transform="translate(-48.615 -59.643)" fill="#ededed"/>
      <rect id="Rectangle_406" data-name="Rectangle 406" width="25.581" height="7.002" transform="translate(37.35 14.879) rotate(-35.566)" fill="#b2b2b2"/>
      <rect id="Rectangle_407" data-name="Rectangle 407" width="25.581" height="7.002" transform="translate(84.007 64.176) rotate(-35.566)" fill="#b2b2b2"/>
      <path id="Path_615" data-name="Path 615" d="M144.225,84.95a1.519,1.519,0,0,1-.409.042l-1.172.039-4.312.067c-3.641.038-8.671.061-14.226.061s-10.587-.024-14.228-.061l-4.312-.067-1.172-.039a1.518,1.518,0,0,1-.409-.042,1.525,1.525,0,0,1,.409-.042l1.172-.039,4.312-.067c3.641-.038,8.671-.061,14.228-.061s10.585.023,14.226.061l4.312.067,1.172.039a1.527,1.527,0,0,1,.409.042Z" transform="translate(-50.405 -63.029)" fill="#afafaf"/>
      <path id="Path_616" data-name="Path 616" d="M143.516,96.979a1.39,1.39,0,0,1-.39.042l-1.119.039-4.115.067c-3.475.038-8.275.061-13.576.061s-10.1-.023-13.578-.061l-4.115-.067-1.119-.039a1.39,1.39,0,0,1-.39-.042,1.391,1.391,0,0,1,.39-.042l1.119-.039,4.115-.067c3.475-.038,8.275-.061,13.578-.061s10.1.023,13.576.061l4.115.067,1.119.039A1.391,1.391,0,0,1,143.516,96.979Z" transform="translate(-50.625 -65.369)" fill="#afafaf"/>
      <path id="Path_617" data-name="Path 617" d="M125.454,108.591a18.71,18.71,0,0,1-2.813.148c-1.738.038-4.139.061-6.791.061s-5.054-.023-6.793-.061a18.7,18.7,0,0,1-2.813-.148,18.709,18.709,0,0,1,2.813-.148c1.738-.038,4.14-.061,6.793-.061s5.053.023,6.791.061A18.712,18.712,0,0,1,125.454,108.591Z" transform="translate(-50.845 -67.629)" fill="#afafaf"/>
    </g>
    <g id="Floor" transform="translate(13.21 305.415)">
      <path id="Path_618" data-name="Path 618" d="M393.321,462.393c0,.438-74.662.792-166.74.792-92.111,0-166.757-.355-166.757-.792s74.646-.792,166.757-.792C318.659,461.6,393.321,461.955,393.321,462.393Z" transform="translate(-59.824 -461.601)" fill="#263238"/>
    </g>
    <g id="Plant" transform="translate(308.972 254.098)">
      <path id="Path_619" data-name="Path 619" d="M385.746,417.972c-1.427,2.038-4.2,1.363-5.485.119a10.36,10.36,0,0,1-2.324-4.765c-1.13-3.927-2.269-8.047-1.429-12.047A6.7,6.7,0,0,1,378.047,398a3.5,3.5,0,0,1,3.314-1.1c1.4.369,2.267,1.739,2.895,3.041a28.717,28.717,0,0,1,2.838,12.324,9.96,9.96,0,0,1-1.347,5.706" transform="translate(-368.158 -396.831)" fill="#2f57ca"/>
      <path id="Path_620" data-name="Path 620" d="M385.746,417.972c-1.427,2.038-4.2,1.363-5.485.119a10.36,10.36,0,0,1-2.324-4.765c-1.13-3.927-2.269-8.047-1.429-12.047A6.7,6.7,0,0,1,378.047,398a3.5,3.5,0,0,1,3.314-1.1c1.4.369,2.267,1.739,2.895,3.041a28.717,28.717,0,0,1,2.838,12.324,9.96,9.96,0,0,1-1.347,5.706" transform="translate(-368.158 -396.831)" opacity="0.2"/>
      <path id="Path_621" data-name="Path 621" d="M378.454,435.607a12.363,12.363,0,0,0-7.67-.932,6.373,6.373,0,0,0-3.789,1.691,2.726,2.726,0,0,0-.039,3.783,3.63,3.63,0,0,0,2.389.606c2.028-.024,4.277-.381,5.9.84.924.7,1.539,1.853,2.644,2.2a2.613,2.613,0,0,0,2.874-1.279,4.465,4.465,0,0,0,.325-3.295A5.03,5.03,0,0,0,378.454,435.607Z" transform="translate(-366.211 -404.147)" fill="#858afc"/>
      <path id="Path_622" data-name="Path 622" d="M392.543,422.478a7.414,7.414,0,0,1-1.154-6.823,13.151,13.151,0,0,1,4.041-5.862,21.754,21.754,0,0,1,7.236-4.269,7.716,7.716,0,0,1,3.254-.553,3.415,3.415,0,0,1,2.731,1.652c.762,1.452.031,3.214-.758,4.651a55.134,55.134,0,0,1-4.753,7.237,12.869,12.869,0,0,1-5.227,4.478c-2.171.83-4.426.732-5.577-.773" transform="translate(-371.037 -398.413)" fill="#555cf5"/>
      <path id="Path_623" data-name="Path 623" d="M385.6,456.711a4.435,4.435,0,0,1-.129-.926l-.246-2.527a36.5,36.5,0,0,0-.568-3.706,28.6,28.6,0,0,0-1.347-4.374,16.126,16.126,0,0,0-2.234-3.958,8.341,8.341,0,0,0-2.824-2.348,7.9,7.9,0,0,0-2.378-.741,4.437,4.437,0,0,1-.922-.133,4.344,4.344,0,0,1,.938-.014,7.206,7.206,0,0,1,2.48.645A8.325,8.325,0,0,1,381.345,441a15.752,15.752,0,0,1,2.315,4.038A26.736,26.736,0,0,1,385,449.48a31.318,31.318,0,0,1,.493,3.753c.081,1.073.111,1.942.125,2.542A4.343,4.343,0,0,1,385.6,456.711Z" transform="translate(-367.911 -404.834)" fill="#263238"/>
      <path id="Path_624" data-name="Path 624" d="M386.809,448.736a1.835,1.835,0,0,1-.025-.43c0-.323,0-.729,0-1.228,0-1.066,0-2.609-.055-4.514-.094-3.81-.422-9.07-1.056-14.852s-1.484-10.985-2.255-14.718c-.182-.936-.366-1.777-.539-2.514s-.306-1.376-.441-1.891l-.287-1.194a.216.216,0,1,1,.074-.021l.357,1.177c.158.511.32,1.144.505,1.879s.4,1.574.6,2.508a139.431,139.431,0,0,1,2.371,14.732c.635,5.794.921,11.069.946,14.889.023,1.91-.018,3.456-.067,4.523l-.075,1.228A1.813,1.813,0,0,1,386.809,448.736Z" transform="translate(-369.298 -398.803)" fill="#263238"/>
      <path id="Path_625" data-name="Path 625" d="M387.915,439.313a8.2,8.2,0,0,1,.009-1.283c.047-.825.161-2.017.393-3.477a45.808,45.808,0,0,1,1.131-5.066,44.872,44.872,0,0,1,2.118-5.994,31.931,31.931,0,0,1,6.221-9.686,15.822,15.822,0,0,1,1.463-1.36c.225-.19.423-.379.625-.529l.568-.391a8.162,8.162,0,0,1,1.08-.692,38.28,38.28,0,0,0-3.541,3.159,33.648,33.648,0,0,0-6.066,9.652,47.84,47.84,0,0,0-2.13,5.939,51.534,51.534,0,0,0-1.2,5.015c-.265,1.445-.419,2.626-.511,3.443a8.236,8.236,0,0,1-.157,1.271Z" transform="translate(-370.43 -399.555)" fill="#263238"/>
    </g>
    <g id="Notebook" transform="translate(99.901 0)">
      <path id="Path_626" data-name="Path 626" d="M347.489,310.183,173.235,288.023,203.588,49.35,382.166,72.06a3.565,3.565,0,0,1,3.086,3.986l-28.9,227.276A7.924,7.924,0,0,1,347.489,310.183Z" transform="translate(-168.581 -49.35)" fill="#455a64"/>
      <rect id="Rectangle_408" data-name="Rectangle 408" width="11.702" height="21.775" transform="translate(200.582 74.318) rotate(-82.752)" fill="#555cf5"/>
      <rect id="Rectangle_409" data-name="Rectangle 409" width="11.702" height="21.775" transform="translate(200.582 74.318) rotate(-82.752)" opacity="0.3"/>
      <rect id="Rectangle_410" data-name="Rectangle 410" width="169.869" height="228.787" transform="translate(41.7 7.4) rotate(7.248)" fill="#e0e0e0"/>
      <rect id="Rectangle_411" data-name="Rectangle 411" width="169.869" height="228.787" transform="translate(34.538 3.676) rotate(7.248)" fill="#fafafa"/>
      <line id="Line_87" data-name="Line 87" x2="167.92" y2="21.355" transform="translate(37.098 26.137)" fill="none" stroke="#e0e0e0" stroke-miterlimit="10" stroke-width="1"/>
      <line id="Line_88" data-name="Line 88" x2="167.92" y2="21.355" transform="translate(36.724 37.558)" fill="none" stroke="#e0e0e0" stroke-miterlimit="10" stroke-width="1"/>
      <line id="Line_89" data-name="Line 89" x2="167.92" y2="21.355" transform="translate(35.289 48.843)" fill="none" stroke="#e0e0e0" stroke-miterlimit="10" stroke-width="1"/>
      <line id="Line_90" data-name="Line 90" x2="167.92" y2="21.355" transform="translate(33.853 60.129)" fill="none" stroke="#e0e0e0" stroke-miterlimit="10" stroke-width="1"/>
      <line id="Line_91" data-name="Line 91" x2="167.92" y2="21.355" transform="translate(32.418 71.414)" fill="none" stroke="#e0e0e0" stroke-miterlimit="10" stroke-width="1"/>
      <line id="Line_92" data-name="Line 92" x2="167.921" y2="21.354" transform="translate(30.983 82.699)" fill="none" stroke="#e0e0e0" stroke-miterlimit="10" stroke-width="1"/>
      <line id="Line_93" data-name="Line 93" x2="167.921" y2="21.354" transform="translate(29.548 93.985)" fill="none" stroke="#e0e0e0" stroke-miterlimit="10" stroke-width="1"/>
      <line id="Line_94" data-name="Line 94" x2="167.921" y2="21.355" transform="translate(28.112 105.27)" fill="none" stroke="#e0e0e0" stroke-miterlimit="10" stroke-width="1"/>
      <line id="Line_95" data-name="Line 95" x2="167.92" y2="21.354" transform="translate(26.678 116.556)" fill="none" stroke="#e0e0e0" stroke-miterlimit="10" stroke-width="1"/>
      <line id="Line_96" data-name="Line 96" x2="167.92" y2="21.354" transform="translate(25.243 127.841)" fill="none" stroke="#e0e0e0" stroke-miterlimit="10" stroke-width="1"/>
      <line id="Line_97" data-name="Line 97" x2="167.92" y2="21.355" transform="translate(23.807 139.126)" fill="none" stroke="#e0e0e0" stroke-miterlimit="10" stroke-width="1"/>
      <line id="Line_98" data-name="Line 98" x2="167.92" y2="21.354" transform="translate(22.372 150.412)" fill="none" stroke="#e0e0e0" stroke-miterlimit="10" stroke-width="1"/>
      <line id="Line_99" data-name="Line 99" x2="167.92" y2="21.354" transform="translate(20.937 161.698)" fill="none" stroke="#e0e0e0" stroke-miterlimit="10" stroke-width="1"/>
      <line id="Line_100" data-name="Line 100" x2="167.921" y2="21.355" transform="translate(19.501 172.983)" fill="#455a64"/>
      <line id="Line_101" data-name="Line 101" x2="167.921" y2="21.354" transform="translate(18.066 184.268)" fill="none" stroke="#e0e0e0" stroke-miterlimit="10" stroke-width="1"/>
      <line id="Line_102" data-name="Line 102" x2="167.921" y2="21.354" transform="translate(16.631 195.554)" fill="none" stroke="#e0e0e0" stroke-miterlimit="10" stroke-width="1"/>
      <line id="Line_103" data-name="Line 103" x2="167.92" y2="21.355" transform="translate(15.196 206.839)" fill="none" stroke="#e0e0e0" stroke-miterlimit="10" stroke-width="1"/>
      <line id="Line_104" data-name="Line 104" x2="167.92" y2="21.354" transform="translate(13.761 218.125)" fill="none" stroke="#e0e0e0" stroke-miterlimit="10" stroke-width="1"/>
      <path id="Path_685" data-name="Path 685" d="M28.763,0,0,226.177" transform="translate(32.507 8.284)" fill="none" stroke="#555cf5" stroke-width="1"/>
      <path id="Path_627" data-name="Path 627" d="M226.893,70.357A3.454,3.454,0,1,1,223.9,66.5,3.454,3.454,0,0,1,226.893,70.357Z" transform="translate(-177.683 -52.68)" fill="#455a64"/>
      <path id="Path_628" data-name="Path 628" d="M222.917,101.623a3.454,3.454,0,1,1-2.99-3.862A3.454,3.454,0,0,1,222.917,101.623Z" transform="translate(-176.909 -58.764)" fill="#455a64"/>
      <path id="Path_629" data-name="Path 629" d="M218.941,132.888a3.454,3.454,0,1,1-2.99-3.862A3.454,3.454,0,0,1,218.941,132.888Z" transform="translate(-176.135 -64.847)" fill="#455a64"/>
      <path id="Path_630" data-name="Path 630" d="M214.965,164.154a3.454,3.454,0,1,1-2.991-3.862,3.454,3.454,0,0,1,2.991,3.862Z" transform="translate(-175.362 -70.93)" fill="#455a64"/>
      <path id="Path_631" data-name="Path 631" d="M210.989,195.42A3.454,3.454,0,1,1,208,191.558,3.454,3.454,0,0,1,210.989,195.42Z" transform="translate(-174.588 -77.014)" fill="#455a64"/>
      <path id="Path_632" data-name="Path 632" d="M207.013,226.686a3.454,3.454,0,1,1-2.99-3.862,3.454,3.454,0,0,1,2.99,3.862Z" transform="translate(-173.815 -83.097)" fill="#455a64"/>
      <path id="Path_633" data-name="Path 633" d="M203.037,257.951a3.454,3.454,0,1,1-2.99-3.862A3.454,3.454,0,0,1,203.037,257.951Z" transform="translate(-173.041 -89.18)" fill="#455a64"/>
      <path id="Path_634" data-name="Path 634" d="M199.061,289.217a3.454,3.454,0,1,1-2.99-3.862A3.454,3.454,0,0,1,199.061,289.217Z" transform="translate(-172.267 -95.264)" fill="#455a64"/>
      <path id="Path_635" data-name="Path 635" d="M195.085,320.483a3.454,3.454,0,1,1-2.991-3.862A3.454,3.454,0,0,1,195.085,320.483Z" transform="translate(-171.494 -101.347)" fill="#455a64"/>
      <path id="Path_636" data-name="Path 636" d="M205.755,79.773c-.012.042-.143.039-.384,0a6.115,6.115,0,0,1-1.038-.279,7.537,7.537,0,0,1-3.219-2.354,8.331,8.331,0,0,1-1.32-2.476,10.3,10.3,0,0,1-.523-3.168,7.65,7.65,0,0,1,.721-3.552,7.9,7.9,0,0,1,2.608-2.886,9.1,9.1,0,0,1,3.581-1.43,10.952,10.952,0,0,1,3.552,0A14.439,14.439,0,0,1,215.2,65.8a19.757,19.757,0,0,1,3.06,2.432c.656.644.971,1.046.915,1.109s-.485-.212-1.228-.732a34.574,34.574,0,0,0-3.2-2.044,14.883,14.883,0,0,0-5.179-1.786,10.259,10.259,0,0,0-3.168.063,8.137,8.137,0,0,0-3.091,1.258,6.861,6.861,0,0,0-2.222,2.416,6.735,6.735,0,0,0-.654,2.988,9.781,9.781,0,0,0,.359,2.848,7.918,7.918,0,0,0,1.042,2.262,7.423,7.423,0,0,0,1.4,1.527,9.278,9.278,0,0,0,1.311.91c.38.229.707.353.912.482S205.767,79.732,205.755,79.773Z" transform="translate(-173.646 -52.099)" fill="#555cf5"/>
      <path id="Path_637" data-name="Path 637" d="M201.779,111.039c-.012.042-.142.039-.384,0a6.1,6.1,0,0,1-1.038-.279,7.536,7.536,0,0,1-3.219-2.354,8.332,8.332,0,0,1-1.32-2.476,10.3,10.3,0,0,1-.523-3.168,7.649,7.649,0,0,1,.721-3.552,7.9,7.9,0,0,1,2.608-2.886,9.1,9.1,0,0,1,3.581-1.43,10.954,10.954,0,0,1,3.552,0,14.437,14.437,0,0,1,5.466,2.168,19.756,19.756,0,0,1,3.06,2.432c.656.644.971,1.046.915,1.109s-.485-.212-1.228-.732a34.575,34.575,0,0,0-3.2-2.044,14.883,14.883,0,0,0-5.179-1.786,10.259,10.259,0,0,0-3.168.063,8.138,8.138,0,0,0-3.091,1.258,6.861,6.861,0,0,0-2.222,2.416,6.735,6.735,0,0,0-.654,2.988,9.779,9.779,0,0,0,.359,2.848,7.914,7.914,0,0,0,1.042,2.262,7.424,7.424,0,0,0,1.4,1.527,9.274,9.274,0,0,0,1.311.91c.38.229.707.353.911.482S201.791,111,201.779,111.039Z" transform="translate(-172.872 -58.183)" fill="#555cf5"/>
      <path id="Path_638" data-name="Path 638" d="M197.8,142.3c-.012.042-.143.039-.384,0a6.108,6.108,0,0,1-1.038-.279,7.536,7.536,0,0,1-3.219-2.354,8.331,8.331,0,0,1-1.32-2.476,10.3,10.3,0,0,1-.523-3.168,7.65,7.65,0,0,1,.721-3.552,7.9,7.9,0,0,1,2.608-2.886,9.1,9.1,0,0,1,3.581-1.43,10.95,10.95,0,0,1,3.552,0,14.437,14.437,0,0,1,5.466,2.168,19.754,19.754,0,0,1,3.06,2.432c.656.644.971,1.046.915,1.109s-.485-.212-1.228-.732a34.574,34.574,0,0,0-3.2-2.044,14.884,14.884,0,0,0-5.179-1.786,10.263,10.263,0,0,0-3.169.063,8.138,8.138,0,0,0-3.091,1.258,6.861,6.861,0,0,0-2.222,2.416,6.735,6.735,0,0,0-.654,2.988,9.784,9.784,0,0,0,.359,2.848,7.916,7.916,0,0,0,1.042,2.262,7.42,7.42,0,0,0,1.4,1.527,9.279,9.279,0,0,0,1.311.91c.38.229.707.353.912.482S197.815,142.263,197.8,142.3Z" transform="translate(-172.099 -64.266)" fill="#555cf5"/>
      <path id="Path_639" data-name="Path 639" d="M193.827,173.57c-.012.042-.143.039-.384,0a6.1,6.1,0,0,1-1.038-.279,7.537,7.537,0,0,1-3.219-2.354,8.33,8.33,0,0,1-1.32-2.476,10.3,10.3,0,0,1-.523-3.168,7.651,7.651,0,0,1,.721-3.552,7.9,7.9,0,0,1,2.608-2.886,9.1,9.1,0,0,1,3.581-1.43,10.954,10.954,0,0,1,3.552,0,14.439,14.439,0,0,1,5.466,2.168,19.761,19.761,0,0,1,3.06,2.432c.656.644.971,1.046.915,1.109s-.485-.212-1.228-.732a34.566,34.566,0,0,0-3.2-2.044,14.883,14.883,0,0,0-5.179-1.786,10.259,10.259,0,0,0-3.168.063,8.137,8.137,0,0,0-3.091,1.258,6.86,6.86,0,0,0-2.222,2.416,6.736,6.736,0,0,0-.654,2.988,9.783,9.783,0,0,0,.359,2.848,7.918,7.918,0,0,0,1.042,2.262,7.423,7.423,0,0,0,1.4,1.527,9.28,9.28,0,0,0,1.311.91c.38.229.707.353.911.482S193.839,173.528,193.827,173.57Z" transform="translate(-171.325 -70.349)" fill="#555cf5"/>
      <path id="Path_640" data-name="Path 640" d="M189.851,204.836c-.012.042-.142.039-.384,0a6.105,6.105,0,0,1-1.038-.279,7.536,7.536,0,0,1-3.219-2.354,8.332,8.332,0,0,1-1.32-2.476,10.305,10.305,0,0,1-.523-3.168,7.649,7.649,0,0,1,.721-3.552,7.9,7.9,0,0,1,2.608-2.886,9.1,9.1,0,0,1,3.581-1.43,10.955,10.955,0,0,1,3.552,0,14.438,14.438,0,0,1,5.466,2.168,19.758,19.758,0,0,1,3.06,2.432c.656.644.971,1.046.915,1.109s-.485-.212-1.228-.732a34.557,34.557,0,0,0-3.2-2.044,14.883,14.883,0,0,0-5.179-1.786,10.258,10.258,0,0,0-3.168.063,8.138,8.138,0,0,0-3.091,1.258,6.861,6.861,0,0,0-2.223,2.415,6.735,6.735,0,0,0-.654,2.988,9.783,9.783,0,0,0,.359,2.848,7.916,7.916,0,0,0,1.042,2.262,7.421,7.421,0,0,0,1.4,1.527,9.276,9.276,0,0,0,1.311.91c.38.229.707.353.911.482S189.863,204.794,189.851,204.836Z" transform="translate(-170.552 -76.433)" fill="#555cf5"/>
      <path id="Path_641" data-name="Path 641" d="M185.874,236.1c-.012.042-.142.039-.384,0a6.115,6.115,0,0,1-1.038-.279,7.538,7.538,0,0,1-3.219-2.354,8.331,8.331,0,0,1-1.32-2.476,10.3,10.3,0,0,1-.523-3.168,7.649,7.649,0,0,1,.721-3.552,7.9,7.9,0,0,1,2.608-2.886,9.1,9.1,0,0,1,3.581-1.43,10.951,10.951,0,0,1,3.552,0,14.438,14.438,0,0,1,5.466,2.168,19.758,19.758,0,0,1,3.06,2.432c.656.644.971,1.046.915,1.109s-.485-.212-1.228-.732a34.563,34.563,0,0,0-3.2-2.044,14.885,14.885,0,0,0-5.179-1.786,10.262,10.262,0,0,0-3.169.063,8.138,8.138,0,0,0-3.09,1.258,6.861,6.861,0,0,0-2.222,2.416,6.735,6.735,0,0,0-.654,2.988,9.782,9.782,0,0,0,.359,2.848,7.917,7.917,0,0,0,1.042,2.262,7.42,7.42,0,0,0,1.4,1.527,9.274,9.274,0,0,0,1.311.91c.38.229.707.353.911.482S185.887,236.06,185.874,236.1Z" transform="translate(-169.778 -82.516)" fill="#e8505b"/>
      <path id="Path_642" data-name="Path 642" d="M181.9,267.367c-.012.042-.142.039-.384,0a6.09,6.09,0,0,1-1.038-.279,7.536,7.536,0,0,1-3.219-2.354,8.331,8.331,0,0,1-1.32-2.476,10.3,10.3,0,0,1-.523-3.168,7.651,7.651,0,0,1,.721-3.552,7.9,7.9,0,0,1,2.608-2.886,9.1,9.1,0,0,1,3.581-1.43,10.953,10.953,0,0,1,3.552,0,14.436,14.436,0,0,1,5.466,2.168,19.755,19.755,0,0,1,3.06,2.432c.656.644.971,1.046.915,1.109s-.485-.212-1.228-.732a34.565,34.565,0,0,0-3.2-2.044,14.883,14.883,0,0,0-5.179-1.786,10.261,10.261,0,0,0-3.168.063,8.138,8.138,0,0,0-3.091,1.258,6.86,6.86,0,0,0-2.222,2.416,6.735,6.735,0,0,0-.654,2.988,9.781,9.781,0,0,0,.359,2.848,7.916,7.916,0,0,0,1.042,2.262,7.425,7.425,0,0,0,1.4,1.527,9.278,9.278,0,0,0,1.311.91c.38.229.707.353.911.482S181.911,267.326,181.9,267.367Z" transform="translate(-169.004 -88.599)" fill="#555cf5"/>
      <path id="Path_643" data-name="Path 643" d="M177.922,298.633c-.012.042-.143.039-.384,0a6.119,6.119,0,0,1-1.038-.279A7.538,7.538,0,0,1,173.282,296a8.331,8.331,0,0,1-1.32-2.476,10.3,10.3,0,0,1-.523-3.168,7.65,7.65,0,0,1,.721-3.552,7.9,7.9,0,0,1,2.608-2.886,9.1,9.1,0,0,1,3.581-1.43,10.951,10.951,0,0,1,3.552,0,14.438,14.438,0,0,1,5.466,2.168,19.756,19.756,0,0,1,3.06,2.432c.656.644.971,1.046.915,1.109s-.485-.212-1.228-.732a34.577,34.577,0,0,0-3.2-2.044,14.884,14.884,0,0,0-5.179-1.786,10.265,10.265,0,0,0-3.168.063,8.139,8.139,0,0,0-3.091,1.258,6.861,6.861,0,0,0-2.222,2.416,6.735,6.735,0,0,0-.654,2.988,9.782,9.782,0,0,0,.359,2.848A7.916,7.916,0,0,0,174,295.47,7.42,7.42,0,0,0,175.4,297a9.27,9.27,0,0,0,1.311.91c.38.229.707.353.911.482S177.934,298.591,177.922,298.633Z" transform="translate(-168.23 -94.683)" fill="#e8505b"/>
      <path id="Path_644" data-name="Path 644" d="M173.946,329.9c-.012.042-.143.039-.384,0a6.114,6.114,0,0,1-1.038-.279,7.538,7.538,0,0,1-3.219-2.354,8.33,8.33,0,0,1-1.32-2.476,10.3,10.3,0,0,1-.523-3.168,7.65,7.65,0,0,1,.721-3.552,7.9,7.9,0,0,1,2.608-2.886,9.1,9.1,0,0,1,3.581-1.43,10.954,10.954,0,0,1,3.552,0,14.439,14.439,0,0,1,5.466,2.168,19.759,19.759,0,0,1,3.06,2.432c.656.644.971,1.046.915,1.109s-.485-.212-1.228-.732a34.593,34.593,0,0,0-3.2-2.044,14.884,14.884,0,0,0-5.179-1.786,10.261,10.261,0,0,0-3.168.063,8.136,8.136,0,0,0-3.091,1.258,6.86,6.86,0,0,0-2.222,2.416,6.736,6.736,0,0,0-.654,2.988,9.784,9.784,0,0,0,.359,2.848,7.917,7.917,0,0,0,1.042,2.262,7.424,7.424,0,0,0,1.4,1.527,9.268,9.268,0,0,0,1.311.91c.38.229.707.353.911.482S173.958,329.857,173.946,329.9Z" transform="translate(-167.457 -100.766)" fill="#555cf5"/>
      <g id="Group_776" data-name="Group 776" transform="translate(0 11.382)" opacity="0.2">
        <path id="Path_645" data-name="Path 645" d="M205.755,79.773c-.012.042-.143.039-.384,0a6.115,6.115,0,0,1-1.038-.279,7.537,7.537,0,0,1-3.219-2.354,8.331,8.331,0,0,1-1.32-2.476,10.3,10.3,0,0,1-.523-3.168,7.65,7.65,0,0,1,.721-3.552,7.9,7.9,0,0,1,2.608-2.886,9.1,9.1,0,0,1,3.581-1.43,10.952,10.952,0,0,1,3.552,0A14.439,14.439,0,0,1,215.2,65.8a19.757,19.757,0,0,1,3.06,2.432c.656.644.971,1.046.915,1.109s-.485-.212-1.228-.732a34.574,34.574,0,0,0-3.2-2.044,14.883,14.883,0,0,0-5.179-1.786,10.259,10.259,0,0,0-3.168.063,8.137,8.137,0,0,0-3.091,1.258,6.861,6.861,0,0,0-2.222,2.416,6.735,6.735,0,0,0-.654,2.988,9.781,9.781,0,0,0,.359,2.848,7.918,7.918,0,0,0,1.042,2.262,7.423,7.423,0,0,0,1.4,1.527,9.278,9.278,0,0,0,1.311.91c.38.229.707.353.912.482S205.767,79.732,205.755,79.773Z" transform="translate(-173.646 -63.481)"/>
        <path id="Path_646" data-name="Path 646" d="M201.779,111.039c-.012.042-.142.039-.384,0a6.1,6.1,0,0,1-1.038-.279,7.536,7.536,0,0,1-3.219-2.354,8.332,8.332,0,0,1-1.32-2.476,10.3,10.3,0,0,1-.523-3.168,7.649,7.649,0,0,1,.721-3.552,7.9,7.9,0,0,1,2.608-2.886,9.1,9.1,0,0,1,3.581-1.43,10.954,10.954,0,0,1,3.552,0,14.437,14.437,0,0,1,5.466,2.168,19.756,19.756,0,0,1,3.06,2.432c.656.644.971,1.046.915,1.109s-.485-.212-1.228-.732a34.575,34.575,0,0,0-3.2-2.044,14.883,14.883,0,0,0-5.179-1.786,10.259,10.259,0,0,0-3.168.063,8.138,8.138,0,0,0-3.091,1.258,6.861,6.861,0,0,0-2.222,2.416,6.735,6.735,0,0,0-.654,2.988,9.779,9.779,0,0,0,.359,2.848,7.914,7.914,0,0,0,1.042,2.262,7.424,7.424,0,0,0,1.4,1.527,9.274,9.274,0,0,0,1.311.91c.38.229.707.353.911.482S201.791,111,201.779,111.039Z" transform="translate(-172.872 -69.564)"/>
        <path id="Path_647" data-name="Path 647" d="M197.8,142.3c-.012.042-.143.039-.384,0a6.108,6.108,0,0,1-1.038-.279,7.536,7.536,0,0,1-3.219-2.354,8.331,8.331,0,0,1-1.32-2.476,10.3,10.3,0,0,1-.523-3.168,7.65,7.65,0,0,1,.721-3.552,7.9,7.9,0,0,1,2.608-2.886,9.1,9.1,0,0,1,3.581-1.43,10.95,10.95,0,0,1,3.552,0,14.437,14.437,0,0,1,5.466,2.168,19.754,19.754,0,0,1,3.06,2.432c.656.644.971,1.046.915,1.109s-.485-.212-1.228-.732a34.574,34.574,0,0,0-3.2-2.044,14.884,14.884,0,0,0-5.179-1.786,10.263,10.263,0,0,0-3.169.063,8.138,8.138,0,0,0-3.091,1.258,6.861,6.861,0,0,0-2.222,2.416,6.735,6.735,0,0,0-.654,2.988,9.784,9.784,0,0,0,.359,2.848,7.916,7.916,0,0,0,1.042,2.262,7.42,7.42,0,0,0,1.4,1.527,9.279,9.279,0,0,0,1.311.91c.38.229.707.353.912.482S197.815,142.263,197.8,142.3Z" transform="translate(-172.099 -75.648)"/>
        <path id="Path_648" data-name="Path 648" d="M193.827,173.57c-.012.042-.143.039-.384,0a6.1,6.1,0,0,1-1.038-.279,7.537,7.537,0,0,1-3.219-2.354,8.33,8.33,0,0,1-1.32-2.476,10.3,10.3,0,0,1-.523-3.168,7.651,7.651,0,0,1,.721-3.552,7.9,7.9,0,0,1,2.608-2.886,9.1,9.1,0,0,1,3.581-1.43,10.954,10.954,0,0,1,3.552,0,14.439,14.439,0,0,1,5.466,2.168,19.761,19.761,0,0,1,3.06,2.432c.656.644.971,1.046.915,1.109s-.485-.212-1.228-.732a34.566,34.566,0,0,0-3.2-2.044,14.883,14.883,0,0,0-5.179-1.786,10.259,10.259,0,0,0-3.168.063,8.137,8.137,0,0,0-3.091,1.258,6.86,6.86,0,0,0-2.222,2.416,6.736,6.736,0,0,0-.654,2.988,9.783,9.783,0,0,0,.359,2.848,7.918,7.918,0,0,0,1.042,2.262,7.423,7.423,0,0,0,1.4,1.527,9.28,9.28,0,0,0,1.311.91c.38.229.707.353.911.482S193.839,173.528,193.827,173.57Z" transform="translate(-171.325 -81.731)"/>
        <path id="Path_649" data-name="Path 649" d="M189.851,204.836c-.012.042-.142.039-.384,0a6.105,6.105,0,0,1-1.038-.279,7.536,7.536,0,0,1-3.219-2.354,8.332,8.332,0,0,1-1.32-2.476,10.305,10.305,0,0,1-.523-3.168,7.649,7.649,0,0,1,.721-3.552,7.9,7.9,0,0,1,2.608-2.886,9.1,9.1,0,0,1,3.581-1.43,10.955,10.955,0,0,1,3.552,0,14.438,14.438,0,0,1,5.466,2.168,19.758,19.758,0,0,1,3.06,2.432c.656.644.971,1.046.915,1.109s-.485-.212-1.228-.732a34.557,34.557,0,0,0-3.2-2.044,14.883,14.883,0,0,0-5.179-1.786,10.258,10.258,0,0,0-3.168.063,8.138,8.138,0,0,0-3.091,1.258,6.861,6.861,0,0,0-2.223,2.415,6.735,6.735,0,0,0-.654,2.988,9.783,9.783,0,0,0,.359,2.848,7.916,7.916,0,0,0,1.042,2.262,7.421,7.421,0,0,0,1.4,1.527,9.276,9.276,0,0,0,1.311.91c.38.229.707.353.911.482S189.863,204.794,189.851,204.836Z" transform="translate(-170.552 -87.814)"/>
        <path id="Path_650" data-name="Path 650" d="M185.874,236.1c-.012.042-.142.039-.384,0a6.115,6.115,0,0,1-1.038-.279,7.538,7.538,0,0,1-3.219-2.354,8.331,8.331,0,0,1-1.32-2.476,10.3,10.3,0,0,1-.523-3.168,7.649,7.649,0,0,1,.721-3.552,7.9,7.9,0,0,1,2.608-2.886,9.1,9.1,0,0,1,3.581-1.43,10.951,10.951,0,0,1,3.552,0,14.438,14.438,0,0,1,5.466,2.168,19.758,19.758,0,0,1,3.06,2.432c.656.644.971,1.046.915,1.109s-.485-.212-1.228-.732a34.563,34.563,0,0,0-3.2-2.044,14.885,14.885,0,0,0-5.179-1.786,10.262,10.262,0,0,0-3.169.063,8.138,8.138,0,0,0-3.09,1.258,6.861,6.861,0,0,0-2.222,2.416,6.735,6.735,0,0,0-.654,2.988,9.782,9.782,0,0,0,.359,2.848,7.917,7.917,0,0,0,1.042,2.262,7.42,7.42,0,0,0,1.4,1.527,9.274,9.274,0,0,0,1.311.91c.38.229.707.353.911.482S185.887,236.06,185.874,236.1Z" transform="translate(-161.723 -93.898)"/>
        <path id="Path_651" data-name="Path 651" d="M181.9,267.367c-.012.042-.142.039-.384,0a6.09,6.09,0,0,1-1.038-.279,7.536,7.536,0,0,1-3.219-2.354,8.331,8.331,0,0,1-1.32-2.476,10.3,10.3,0,0,1-.523-3.168,7.651,7.651,0,0,1,.721-3.552,7.9,7.9,0,0,1,2.608-2.886,9.1,9.1,0,0,1,3.581-1.43,10.953,10.953,0,0,1,3.552,0,14.436,14.436,0,0,1,5.466,2.168,19.755,19.755,0,0,1,3.06,2.432c.656.644.971,1.046.915,1.109s-.485-.212-1.228-.732a34.565,34.565,0,0,0-3.2-2.044,14.883,14.883,0,0,0-5.179-1.786,10.261,10.261,0,0,0-3.168.063,8.138,8.138,0,0,0-3.091,1.258,6.86,6.86,0,0,0-2.222,2.416,6.735,6.735,0,0,0-.654,2.988,9.781,9.781,0,0,0,.359,2.848,7.916,7.916,0,0,0,1.042,2.262,7.425,7.425,0,0,0,1.4,1.527,9.278,9.278,0,0,0,1.311.91c.38.229.707.353.911.482S181.911,267.326,181.9,267.367Z" transform="translate(-169.004 -99.981)"/>
        <path id="Path_652" data-name="Path 652" d="M177.922,298.633c-.012.042-.143.039-.384,0a6.119,6.119,0,0,1-1.038-.279A7.538,7.538,0,0,1,173.282,296a8.331,8.331,0,0,1-1.32-2.476,10.3,10.3,0,0,1-.523-3.168,7.65,7.65,0,0,1,.721-3.552,7.9,7.9,0,0,1,2.608-2.886,9.1,9.1,0,0,1,3.581-1.43,10.951,10.951,0,0,1,3.552,0,14.438,14.438,0,0,1,5.466,2.168,19.756,19.756,0,0,1,3.06,2.432c.656.644.971,1.046.915,1.109s-.485-.212-1.228-.732a34.577,34.577,0,0,0-3.2-2.044,14.884,14.884,0,0,0-5.179-1.786,10.265,10.265,0,0,0-3.168.063,8.139,8.139,0,0,0-3.091,1.258,6.861,6.861,0,0,0-2.222,2.416,6.735,6.735,0,0,0-.654,2.988,9.782,9.782,0,0,0,.359,2.848A7.916,7.916,0,0,0,174,295.47,7.42,7.42,0,0,0,175.4,297a9.27,9.27,0,0,0,1.311.91c.38.229.707.353.911.482S177.934,298.591,177.922,298.633Z" transform="translate(-160.176 -106.064)"/>
        <path id="Path_653" data-name="Path 653" d="M173.946,329.9c-.012.042-.143.039-.384,0a6.114,6.114,0,0,1-1.038-.279,7.538,7.538,0,0,1-3.219-2.354,8.33,8.33,0,0,1-1.32-2.476,10.3,10.3,0,0,1-.523-3.168,7.65,7.65,0,0,1,.721-3.552,7.9,7.9,0,0,1,2.608-2.886,9.1,9.1,0,0,1,3.581-1.43,10.954,10.954,0,0,1,3.552,0,14.439,14.439,0,0,1,5.466,2.168,19.759,19.759,0,0,1,3.06,2.432c.656.644.971,1.046.915,1.109s-.485-.212-1.228-.732a34.593,34.593,0,0,0-3.2-2.044,14.884,14.884,0,0,0-5.179-1.786,10.261,10.261,0,0,0-3.168.063,8.136,8.136,0,0,0-3.091,1.258,6.86,6.86,0,0,0-2.222,2.416,6.736,6.736,0,0,0-.654,2.988,9.784,9.784,0,0,0,.359,2.848,7.917,7.917,0,0,0,1.042,2.262,7.424,7.424,0,0,0,1.4,1.527,9.268,9.268,0,0,0,1.311.91c.38.229.707.353.911.482S173.958,329.857,173.946,329.9Z" transform="translate(-167.457 -112.148)"/>
      </g>
      <rect id="Rectangle_412" data-name="Rectangle 412" width="11.702" height="19.595" transform="matrix(0.126, -0.992, 0.992, 0.126, 201.702, 65.489)" fill="#555cf5"/>
      <path id="Path_654" data-name="Path 654" d="M371.26,123.33a1.844,1.844,0,0,1-.322-.021l-.941-.1-3.612-.439-13.275-1.693-43.776-5.743-12.477-1.659c-4.03-.527-7.917-1.08-11.619-1.528a40.714,40.714,0,0,0-10.531-.111c-3.266.458-6.351,1.157-9.215.814a10.91,10.91,0,0,1-3.875-1.2c-1.138-.6-2.129-1.281-3.079-1.872a15.888,15.888,0,0,0-2.743-1.445,7.633,7.633,0,0,0-2.54-.475,4.892,4.892,0,0,0-3.343,1.081,5.481,5.481,0,0,0-.811.958,1.832,1.832,0,0,1,.152-.286,1.758,1.758,0,0,1,.228-.328,2.489,2.489,0,0,1,.375-.408,4.917,4.917,0,0,1,3.4-1.181,7.736,7.736,0,0,1,2.609.45,15.886,15.886,0,0,1,2.8,1.434c.961.585,1.955,1.259,3.078,1.834a10.664,10.664,0,0,0,3.786,1.143c2.8.317,5.847-.387,9.135-.864a40.818,40.818,0,0,1,10.622.072c3.717.439,7.6.983,11.629,1.5l12.478,1.65,43.76,5.864,13.257,1.825,3.6.517.935.145A1.847,1.847,0,0,1,371.26,123.33Z" transform="translate(-183.342 -60.7)" fill="#263238"/>
      <path id="Path_655" data-name="Path 655" d="M368.575,138.1a1.606,1.606,0,0,1-.3-.017l-.88-.091-3.378-.39L351.6,136.091l-40.939-5.144-40.931-5.267-12.4-1.644-3.368-.468-.875-.132a1.61,1.61,0,0,1-.3-.059,1.6,1.6,0,0,1,.3.017l.88.091,3.378.39,12.414,1.512,40.946,5.145,40.924,5.266,12.4,1.644,3.368.468.875.132A1.616,1.616,0,0,1,368.575,138.1Z" transform="translate(-184.061 -63.753)" fill="#263238"/>
      <path id="Path_656" data-name="Path 656" d="M352.879,222.234a1.462,1.462,0,0,1-.287-.015l-.837-.085-3.211-.369-11.8-1.434-38.914-4.887-38.9-5.01-11.783-1.566-3.2-.447-.831-.127a1.46,1.46,0,0,1-.281-.057,1.458,1.458,0,0,1,.287.015l.836.085,3.211.369,11.8,1.434,38.921,4.888,38.9,5.009,11.784,1.566,3.2.447.831.127A1.459,1.459,0,0,1,352.879,222.234Z" transform="translate(-182.122 -80.264)" fill="#263238"/>
      <path id="Path_657" data-name="Path 657" d="M349.266,250.641a1.457,1.457,0,0,1-.287-.015l-.837-.085-3.211-.369-11.8-1.434-38.914-4.887-38.9-5.01-11.783-1.566-3.2-.447-.831-.127a1.453,1.453,0,0,1-.281-.057,1.443,1.443,0,0,1,.287.015l.836.085,3.211.369,11.8,1.434,38.92,4.888,38.9,5.009,11.784,1.566,3.2.447.831.127a1.455,1.455,0,0,1,.281.057Z" transform="translate(-181.419 -85.791)" fill="#263238"/>
      <path id="Path_658" data-name="Path 658" d="M348.817,235.859a1.4,1.4,0,0,1-.281-.014l-.819-.083-3.145-.36L333.017,234l-38.1-4.784-38.095-4.906-11.538-1.534-3.134-.439-.813-.124a1.4,1.4,0,0,1-.275-.056,1.4,1.4,0,0,1,.281.014l.819.083,3.144.36,11.555,1.4,38.11,4.784,38.088,4.906,11.539,1.535,3.135.438.814.125A1.4,1.4,0,0,1,348.817,235.859Z" transform="translate(-181.777 -82.972)" fill="#263238"/>
      <path id="Path_659" data-name="Path 659" d="M287.025,255.594a2.3,2.3,0,0,1-.507-.022l-1.445-.144-5.3-.607-17.479-2.161-17.467-2.283-5.287-.74-1.435-.222a2.31,2.31,0,0,1-.5-.106,2.314,2.314,0,0,1,.507.022l1.445.144,5.3.607,17.482,2.161,17.464,2.283,5.287.74,1.435.222a2.315,2.315,0,0,1,.5.106Z" transform="translate(-181.105 -88.255)" fill="#263238"/>
      <path id="Path_660" data-name="Path 660" d="M266.716,137.853c-.015.115-4.159-.318-9.256-.966s-9.218-1.267-9.2-1.382,4.158.317,9.256.966S266.73,137.739,266.716,137.853Z" transform="translate(-183.178 -66.11)" fill="#263238"/>
      <path id="Path_661" data-name="Path 661" d="M355.769,207.06a1.365,1.365,0,0,1-.277-.013l-.808-.08c-.709-.082-1.754-.191-3.1-.3s-3-.246-4.921-.357-4.108-.223-6.528-.329c-4.839-.216-10.607-.366-17.007-.739-3.2-.194-6.558-.438-10.023-.886-3.461-.47-7.02-1.04-10.678-1.581l-37.434-5.727-11.336-1.789-3.079-.507-.8-.142a1.364,1.364,0,0,1-.27-.063,1.358,1.358,0,0,1,.277.02l.805.1,3.09.429,11.356,1.657,37.451,5.606c3.655.54,7.223,1.115,10.669,1.588,3.448.451,6.8.7,9.994.908,6.39.394,12.158.574,17,.828,2.42.125,4.609.247,6.53.391s3.573.285,4.921.429,2.393.274,3.1.382l.8.121A1.349,1.349,0,0,1,355.769,207.06Z" transform="translate(-183.421 -77.6)" fill="#263238"/>
    </g>
    <g id="Character" transform="translate(33.895 45.773)">
      <path id="Path_662" data-name="Path 662" d="M124.058,266.67s98.561-97.456,109.771-112.9l-6.746-6.206L115.936,258.1Z" transform="translate(-91.427 -141.617)" fill="#e0e0e0"/>
      <path id="Path_663" data-name="Path 663" d="M88.088,305.095c4.435.085,16.418-1.627,33.3-19.037l14.894-13.439-11.4-10.964s22.713-21.04,21.627-22.191-13.154,10.051-22.694,18.306c-8.678,7.51-37.633,33.994-38.3,44.51a2.643,2.643,0,0,0,2.577,2.815Z" transform="translate(-85.506 -159.482)" fill="#555cf5"/>
      <path id="Path_664" data-name="Path 664" d="M146.567,239.463c-1.086-1.15-13.154,10.051-22.694,18.306-.752.651-1.664,1.452-2.689,2.365L132.5,270.977l-14.866,13.469c-15.285,15.833-26.564,18.727-31.834,19.07a2.623,2.623,0,0,0,2.346,1.579c4.435.085,16.418-1.627,33.3-19.037l14.894-13.439-11.4-10.964S147.653,240.614,146.567,239.463Z" transform="translate(-85.563 -159.482)" opacity="0.2"/>
      <path id="Path_665" data-name="Path 665" d="M106.035,194.7l77.681-78.076-3.289-3.026-77.551,77.77Z" transform="translate(-53.682 -95.259)" fill="#263238"/>
      <path id="Path_666" data-name="Path 666" d="M258.35,152.439s7.368-11.61,5.31-12.218-11.985,5.91-11.985,5.91l1.9,1.961-11.238,10.855,3.719,2.6L256.315,150.7Z" transform="translate(-116.02 -140.18)" fill="#455a64"/>
      <path id="Path_667" data-name="Path 667" d="M166.52,210.566h0a7.245,7.245,0,0,0,7.794-6.947c.152-3.944.284-7.931.284-7.931s5.976-.56,6.41-6.475.236-19.569.236-19.569h0a20.61,20.61,0,0,0-20.829,1.339l-.918.622.335,31.815A7.244,7.244,0,0,0,166.52,210.566Z" transform="translate(-99.902 -145.484)" fill="#ffc3bd"/>
      <path id="Path_668" data-name="Path 668" d="M165.27,160.6a9.942,9.942,0,0,0-8.534,5.137c-1.671,2.894-2.033,6.251-2.188,9.515A180.574,180.574,0,0,0,155,194.469a2.082,2.082,0,0,0,.411,1.354,2.573,2.573,0,0,0,1.56.586,121.656,121.656,0,0,0,32.949.05c.72-1.3-.29-2.85-1.457-3.851s-2.608-1.91-3.029-3.317c-.662-2.212,1.536-4.583.678-6.739-.644-1.62-2.775-2.417-3.524-4-1.258-2.658,1.988-5.871.548-8.452-.751-1.345-2.507-1.941-3.616-3.063-.981-.992-1.4-2.339-2.253-3.426a8.736,8.736,0,0,0-5.905-2.883,21.7,21.7,0,0,0-6.093-.125" transform="translate(-98.924 -144.123)" fill="#205ae1"/>
      <path id="Path_669" data-name="Path 669" d="M154.67,169.038c-1.528.745-2.188,2.569-2.41,4.254s-.162,3.452-.863,5c-.748,1.654-2.307,2.915-2.718,4.683-.535,2.3.981,5.008-.388,6.93-.882,1.239-2.612,1.549-3.7,2.614-1.5,1.473-1.367,3.884-1.128,5.973l19.749-.177" transform="translate(-96.754 -145.795)" fill="#205ae1"/>
      <path id="Path_670" data-name="Path 670" d="M158.078,163.955a6.013,6.013,0,0,0-9.072-4.024c-3.156,1.949-4.271,6.6-7.819,7.679-.924.281-2.062.363-2.548,1.2a1.907,1.907,0,0,0,1.031,2.48,5.531,5.531,0,0,0,2.969.239,1.887,1.887,0,0,0-2.061,2.187,2.408,2.408,0,0,0,2.716,1.733,3.354,3.354,0,0,0,2.5-2.288l-1.284,3.724c2.456.431,4.549-1.78,5.794-3.941s2.373-4.685,4.673-5.649c1.022-.428,2.209-.505,3.088-1.18s1.052-2.367-.006-2.694" transform="translate(-95.809 -143.849)" fill="#205ae1"/>
      <path id="Path_671" data-name="Path 671" d="M163.557,165.229c.021-.038.46.179.865.826a3.2,3.2,0,0,1-1.871,4.795,1.675,1.675,0,0,1-1.2.022c0-.071.456-.048,1.1-.3a3.1,3.1,0,0,0,1.705-4.371C163.86,165.574,163.51,165.282,163.557,165.229Z" transform="translate(-100.264 -145.053)" fill="#263238"/>
      <path id="Path_672" data-name="Path 672" d="M146.972,347.912,157.1,394.606l13.356-.313-5.918-50.511Z" transform="translate(-62.262 -140.046)" fill="#ffc3bd"/>
      <path id="Path_673" data-name="Path 673" d="M130.18,236.725s-.227.325-.6.91c-2.146,3.407-8.185,15.629-3.1,23.8l12.772-11.228,2.158-5.045" transform="translate(-93.093 -158.965)" fill="#ffc3bd"/>
      <path id="Path_674" data-name="Path 674" d="M95.947,302.093l-4.3,79.722,13.145,3.176,9.855-81.217Z" transform="translate(-51.497 -131.935)" fill="#ffc3bd"/>
      <path id="Path_675" data-name="Path 675" d="M196.3,222.814l-18.53,4.47-1.07,14.294,2.58,8.15c-.032.3,4.167,14,4.167,14l1.3,4.533-42.35.44c-.141-4.949,3.151-9.829,3.151-9.829,2.41-4.087,1.786-10.256.665-14.939-.355-1.482-.826-3.925-1.013-5.437l-.032-.261-2.424,4.263-14.7-10.615c4.775-9.21,11.781-18.522,12.624-19.215a17.307,17.307,0,0,1,10.911-4l18.283.156s14.393-1.8,22.785-3.22Z" transform="translate(-93.78 -152.91)" fill="#6c6fa5"/>
      <path id="Path_676" data-name="Path 676" d="M195.313,208.158a12.064,12.064,0,0,0-1.913,1.362c-.57.5-1.206,1.174-1.941,1.968A18.875,18.875,0,0,1,188.75,214a17.258,17.258,0,0,1-8.938,3.326,16.758,16.758,0,0,1-5.664-.534c-1.914-.519-3.769-1.371-5.748-1.931a12.343,12.343,0,0,0-2.977-.5,11.521,11.521,0,0,0-2.9.34,27.478,27.478,0,0,0-5.2,2.074,41,41,0,0,1-4.7,2.061,13.678,13.678,0,0,1-10.7-.648,12.037,12.037,0,0,1-1.514-.9,3.34,3.34,0,0,1-.481-.38c.027-.042.691.493,2.066,1.132a13.979,13.979,0,0,0,6.205,1.289,13.7,13.7,0,0,0,4.306-.823,41.877,41.877,0,0,0,4.642-2.08,27.421,27.421,0,0,1,5.268-2.126,11.865,11.865,0,0,1,3.014-.359,12.686,12.686,0,0,1,3.079.509c2.022.574,3.873,1.427,5.744,1.939a16.506,16.506,0,0,0,5.526.545,17.154,17.154,0,0,0,8.79-3.18,19.27,19.27,0,0,0,2.714-2.434,25.284,25.284,0,0,1,2.005-1.93,8.2,8.2,0,0,1,1.456-.994,3.941,3.941,0,0,1,.415-.2A.45.45,0,0,1,195.313,208.158Z" transform="translate(-96.096 -153.406)" fill="#263238"/>
      <path id="Path_677" data-name="Path 677" d="M178.056,235.977a1.7,1.7,0,0,1-.369.355,3.246,3.246,0,0,1-1.351.584,5.256,5.256,0,0,1-2.327-.12,9.388,9.388,0,0,1-2.77-1.348,24,24,0,0,0-3.132-1.912,9.057,9.057,0,0,0-4.059-.74c-2.969.092-6.055,1.341-9.212,2.706a32.662,32.662,0,0,1-4.786,1.665,12.61,12.61,0,0,1-4.728.337,9.97,9.97,0,0,1-4.023-1.5,14.323,14.323,0,0,1-2.857-2.4,27.027,27.027,0,0,1-3.163-4.345c-.328-.542-.573-.968-.736-1.259a2.321,2.321,0,0,1-.229-.455,2.341,2.341,0,0,1,.3.411l.8,1.216a30.01,30.01,0,0,0,3.241,4.229,14.3,14.3,0,0,0,2.825,2.309,9.694,9.694,0,0,0,3.89,1.408,12.332,12.332,0,0,0,4.579-.353,33.007,33.007,0,0,0,4.722-1.653c3.149-1.359,6.3-2.631,9.362-2.705a9.343,9.343,0,0,1,4.215.81A23.35,23.35,0,0,1,171.4,235.2a9.354,9.354,0,0,0,2.668,1.369,5.23,5.23,0,0,0,2.236.185A3.854,3.854,0,0,0,178.056,235.977Z" transform="translate(-95.002 -157.18)" fill="#263238"/>
      <path id="Path_678" data-name="Path 678" d="M182.1,254.348c.011.01-.061.1-.209.26a4.613,4.613,0,0,1-.722.631,6.934,6.934,0,0,1-3.311,1.167,12.04,12.04,0,0,1-5.163-.7c-1.865-.636-3.77-1.648-5.837-2.489a13.982,13.982,0,0,0-6.087-1.18,13.691,13.691,0,0,0-4.939,1.191,16.885,16.885,0,0,0-3.924,2.62c-.01-.01.061-.1.206-.262a7.258,7.258,0,0,1,.674-.675,12.4,12.4,0,0,1,2.918-1.952,13.522,13.522,0,0,1,5.044-1.309,14.065,14.065,0,0,1,6.264,1.177c2.1.855,3.987,1.871,5.809,2.514a12.1,12.1,0,0,0,5.008.768,7.155,7.155,0,0,0,3.247-1.008C181.761,254.663,182.067,254.315,182.1,254.348Z" transform="translate(-98.425 -161.867)" fill="#263238"/>
      <path id="Path_679" data-name="Path 679" d="M186.439,270.833c-.026.035-.43-.3-1.258-.72a10.278,10.278,0,0,0-3.771-1,16.98,16.98,0,0,0-5.768.629c-2.131.562-4.392,1.475-6.844,2.247a21.782,21.782,0,0,1-7.157,1.127,20.44,20.44,0,0,1-5.842-.956,19.059,19.059,0,0,1-3.66-1.584c-.413-.226-.717-.43-.922-.569a1.29,1.29,0,0,1-.3-.229c.021-.034.464.239,1.3.654a21.8,21.8,0,0,0,3.669,1.445,21.021,21.021,0,0,0,5.761.854,21.99,21.99,0,0,0,7.027-1.141c2.428-.764,4.7-1.67,6.87-2.221a16.715,16.715,0,0,1,5.894-.551,9.8,9.8,0,0,1,3.82,1.154,6.494,6.494,0,0,1,.9.609C186.351,270.735,186.447,270.822,186.439,270.833Z" transform="translate(-98.232 -165.197)" fill="#263238"/>
      <path id="Path_680" data-name="Path 680" d="M100.274,232.619l-8.118,93.1,20.058.119,9.912-74.612,12.939,75.289,20.07-3.7-12.3-89.405Z" transform="translate(-51.597 -118.418)" fill="#122f3a"/>
      <path id="Path_681" data-name="Path 681" d="M183.478,302.041c.014.115-6.863,1.025-15.358,2.032s-15.4,1.731-15.409,1.616,6.862-1.025,15.36-2.032S183.465,301.926,183.478,302.041Z" transform="translate(-98.582 -171.671)" fill="#223f4a"/>
      <path id="Path_682" data-name="Path 682" d="M228.707,460.315c.075-.1.044-.2-.053-.313a6.91,6.91,0,0,0-2.818-1.175c-.629-.179-1.111-.3-1.111-.3h0c-2.891-.73-6.3-1.348-6.3-1.348l-.056-1.493-15.122.437.131,4.923c3.6.2,9.356.2,14.472.073a68.153,68.153,0,0,0,10.22-.608A1.386,1.386,0,0,0,228.707,460.315Z" transform="translate(-108.415 -201.569)" fill="#0a2230"/>
      <path id="Path_683" data-name="Path 683" d="M90.619,400.227l-2.238,9.847,15.147-.194.627-6.216Z" transform="translate(-50.862 -151.029)" fill="#0a2230"/>
      <line id="Line_106" data-name="Line 106" x1="0.273" y2="1.633" transform="translate(37.519 257.242)" fill="#fff" opacity="0.6"/>
      <path id="Path_684" data-name="Path 684" d="M243.809,166.569l-5.516,1.99c-.079-2.209-1.581-4.511-1.581-3.4s-.522,6.808-.522,6.808l-11.507,20.018a9.876,9.876,0,0,1-6.554,5.376l-9.438,2.021,2.652,12.475,13.151-3.248a11.09,11.09,0,0,0,7.576-6.5l10.942-26.228a41.868,41.868,0,0,0,1.843-5.192A5.13,5.13,0,0,0,243.809,166.569Z" transform="translate(-109.474 -144.984)" fill="#ffc3bd"/>
    </g>
  </g>
</svg>
